…
```
## # A tibble: 120 × 6
##    country continent  year lifeExp     pop gdpPercap
##    <fct>   <fct>     <int>   <dbl>   <int>     <dbl>
##  1 Austria Europe     1952    66.8 6927772     6137.
##  2 Austria Europe     1957    67.5 6965860     8843.
##  3 Austria Europe     1962    69.5 7129864    10751.
##  4 Austria Europe     1967    70.1 7376998    12835.
##  5 Austria Europe     1972    70.6 7544201    16662.
##  6 Austria Europe     1977    72.2 7568430    19749.
##  7 Austria Europe     1982    73.2 7574613    21597.
##  8 Austria Europe     1987    74.9 7578903    23688.
##  9 Austria Europe     1992    76.0 7914969    27042.
## 10 Austria Europe     1997    77.5 8069876    29096.
## # … with 110 more rows
```
…
#  1.5读取excel表数据，绘制动态折线图

```r
library(tidyverse)
library(readxl)
library(ggplot2)
library(ggpubr)
library(patchwork)
library(gganimate)
x3 <- read_xlsx("D:/wenyu/BruceR/不同批次下训练的损失值.xlsx",sheet = 3)
x3
```

```
## # A tibble: 60 × 5
##    epoch train_loss train_acc val_loss val_acc
##    <dbl>      <dbl>     <dbl>    <dbl>   <dbl>
##  1     1      0.686     0.577    0.662   0.649
##  2     2      0.678     0.579    0.66    0.622
##  3     3      0.666     0.582    0.618   0.648
##  4     4      0.559     0.613    0.411   0.89 
##  5     5      0.343     0.911    0.264   0.922
##  6     6      0.274     0.912    0.26    0.931
##  7     7      0.265     0.904    0.19    0.944
##  8     8      0.184     0.934    0.156   0.944
##  9     9      0.238     0.909    0.204   0.934
## 10    10      0.187     0.929    0.142   0.959
## # … with 50 more rows
```

```r
x31 <- x3[,c(1,2,4)] %>% 
  pivot_longer(-epoch,names_to = "type", 
               values_to = "loss") 
x31
```

```
## # A tibble: 120 × 3
##    epoch type        loss
##    <dbl> <chr>      <dbl>
##  1     1 train_loss 0.686
##  2     1 val_loss   0.662
##  3     2 train_loss 0.678
##  4     2 val_loss   0.66 
##  5     3 train_loss 0.666
##  6     3 val_loss   0.618
##  7     4 train_loss 0.559
##  8     4 val_loss   0.411
##  9     5 train_loss 0.343
## 10     5 val_loss   0.264
## # … with 110 more rows
```
…
